<svg xmlns="http://www.w3.org/2000/svg">
    <symbol id="account-icon" viewBox="0 0 60 60">
        <title>Account</title>
        <path d="M37.8 30.4c5-2.8 8.4-8.2 8.4-14.3C46.1 7.3 39 0 30 0S13.9 7.5 13.9 16.3c0 6 3.3 11.4 8.3 14.1C11.3 33.8 3.4 44 3.4 55.9V60h3.2v-4.1c0-12.9 10.5-23.4 23.4-23.4s23.4 10.5 23.4 23.4V60h3.2v-4.1C56.6 44 48.6 33.8 37.8 30.4zM28.3 29.3c-6.5-0.8-11.4-6.3-11.4-13 0-7.3 6-13.1 13.1-13.1S43.1 9 43.1 16.3c0 6.7-4.9 12.2-11.4 13 -0.6 0.1-1.1 0.1-1.7 0.1S28.9 29.4 28.3 29.3z"/><path d="M31.7 29.3c-0.6 0.1-1.1 0.1-1.7 0.1s-1.1 0-1.7-0.1c0.6 0 1.1-0.1 1.7-0.1S31.1 29.3 31.7 29.3z"/>
    </symbol>
    <symbol id="watch-icon" viewBox="0 0 60 60">
        <title>Watch</title>
        <path d="M26.1 59.7c1.3 0.2 2.6 0.3 4 0.3 15 0 27.7-11.2 29.7-26.1 2.2-16.4-9.4-31.5-25.8-33.7C32.6 0.1 31.3 0 30 0 15 0 2.2 11.2 0.3 26.1 -1.9 42.5 9.7 57.6 26.1 59.7zM1.9 26.3c1.8-14 13.9-24.6 28-24.6 1.2 0 2.5 0.1 3.7 0.2 15.5 2 26.4 16.3 24.4 31.8 -1.8 14-13.9 24.6-28 24.6 -1.2 0-2.5-0.1-3.7-0.2C10.8 56-0.1 41.8 1.9 26.3z"/><path d="M30 7c0.5 0 0.8-0.4 0.8-0.8V4.4c0-0.5-0.4-0.8-0.8-0.8 -0.5 0-0.8 0.4-0.8 0.8v1.8C29.2 6.7 29.5 7 30 7z"/><path d="M30 53c-0.5 0-0.8 0.4-0.8 0.8v1.8c0 0.5 0.4 0.8 0.8 0.8 0.5 0 0.8-0.4 0.8-0.8v-1.8C30.8 53.3 30.5 53 30 53z"/><path d="M6.2 29.2H4.4c-0.5 0-0.8 0.4-0.8 0.8 0 0.5 0.4 0.8 0.8 0.8h1.8C6.7 30.8 7 30.5 7 30S6.7 29.2 6.2 29.2z"/><path d="M17.4 9.8c0.2 0.3 0.4 0.4 0.7 0.4 0.1 0 0.3 0 0.4-0.1 0.4-0.2 0.5-0.7 0.3-1.1l-0.9-1.5c-0.2-0.4-0.7-0.5-1.1-0.3 -0.4 0.2-0.5 0.7-0.3 1.1L17.4 9.8z"/><path d="M42.6 50.2c-0.2-0.4-0.7-0.5-1.1-0.3 -0.4 0.2-0.5 0.7-0.3 1.1l0.9 1.5c0.2 0.3 0.4 0.4 0.7 0.4 0.1 0 0.3 0 0.4-0.1 0.4-0.2 0.5-0.7 0.3-1.1L42.6 50.2z"/><path d="M9 41.2l-1.5 0.9c-0.4 0.2-0.5 0.7-0.3 1.1 0.2 0.3 0.4 0.4 0.7 0.4 0.1 0 0.3 0 0.4-0.1l1.5-0.9c0.4-0.2 0.5-0.7 0.3-1.1C9.9 41.1 9.4 40.9 9 41.2z"/><path d="M50.6 18.9c0.1 0 0.3 0 0.4-0.1l1.5-0.9c0.4-0.2 0.5-0.7 0.3-1.1 -0.2-0.4-0.7-0.5-1.1-0.3l-1.5 0.9c-0.4 0.2-0.5 0.7-0.3 1.1C50 18.8 50.3 18.9 50.6 18.9z"/><path d="M7.4 17.9L9 18.8c0.1 0.1 0.3 0.1 0.4 0.1 0.3 0 0.6-0.1 0.7-0.4 0.2-0.4 0.1-0.9-0.3-1.1l-1.5-0.9c-0.4-0.2-0.9-0.1-1.1 0.3C6.9 17.2 7 17.7 7.4 17.9z"/><path d="M52.6 42.1L51 41.2c-0.4-0.2-0.9-0.1-1.1 0.3 -0.2 0.4-0.1 0.9 0.3 1.1l1.5 0.9c0.1 0.1 0.3 0.1 0.4 0.1 0.3 0 0.6-0.2 0.7-0.4C53.1 42.8 53 42.3 52.6 42.1z"/><path d="M18.5 49.9c-0.4-0.2-0.9-0.1-1.1 0.3l-0.9 1.5c-0.2 0.4-0.1 0.9 0.3 1.1 0.1 0.1 0.3 0.1 0.4 0.1 0.3 0 0.6-0.1 0.7-0.4l0.9-1.5C19.1 50.6 18.9 50.1 18.5 49.9z"/><path d="M41.5 10.1c0.1 0.1 0.3 0.1 0.4 0.1 0.3 0 0.6-0.1 0.7-0.4l0.9-1.5c0.2-0.4 0.1-0.9-0.3-1.1 -0.4-0.2-0.9-0.1-1.1 0.3L41.2 9C40.9 9.4 41.1 9.9 41.5 10.1z"/><path d="M16.3 20.6l13.2 10.1c0 0 0 0 0 0 0 0 0 0 0.1 0 0 0 0 0 0.1 0 0 0 0 0 0.1 0 0 0 0.1 0 0.1 0 0 0 0 0 0.1 0 0 0 0.1 0 0.1 0 0 0 0 0 0 0h23.8 1.8 0c0.5 0 0.8-0.4 0.8-0.8 0-0.5-0.4-0.8-0.8-0.8h0 -1.8H30.3l-12.9-9.9C17 19 16.5 19 16.2 19.4 15.9 19.8 16 20.3 16.3 20.6z"/>
    </symbol>
    <symbol id="laptop-icon" viewBox="0 0 60 60">
        <title>Laptop</title>
        <path class="st0" d="M52.8 13c0.2 0 0.4 0.2 0.4 0.4C53.3 13.2 53.1 13 52.8 13zM32.8 12.4c0.3-0.1 0.5-0.3 0.5-0.6C33.2 12.1 33 12.3 32.8 12.4z"/><path class="st0" d="M32.5 11.7C32.5 11.8 32.4 11.8 32.5 11.7 32.4 11.7 32.4 11.6 32.5 11.7 32.4 11.8 32.5 11.8 32.5 11.7L32.5 11.7z"/><path class="st0" d="M1.1 48.3v-1.5H1L1.1 48.3 3 50h0.1L1.1 48.3z"/><path class="st0" d="M22.8 48.1c-0.3 0-0.6 0.2-0.7 0.4H22C22.2 48.3 22.4 48.1 22.8 48.1L22.8 48.1z"/><path d="M30 10.5c-0.7 0-1.2 0.5-1.2 1.2s0.5 1.2 1.2 1.2 1.2-0.5 1.2-1.2S30.7 10.5 30 10.5zM30.3 11.8c0 0.1-0.1 0.1-0.2 0.1 0 0-0.1 0-0.1 0s-0.1 0-0.1 0c-0.1 0-0.1-0.1-0.2-0.1 0 0 0-0.1 0-0.1s0-0.1 0-0.1c0-0.1 0.1-0.1 0.2-0.2 0 0 0.1 0 0.1 0s0.1 0 0.1 0c0.1 0 0.1 0.1 0.2 0.2 0 0 0 0.1 0 0.1S30.3 11.8 30.3 11.8z"/><path d="M33.3 11.6c-0.1-0.3-0.3-0.5-0.5-0.6 -0.1 0-0.1 0-0.1 0 -0.1 0-0.1 0-0.2 0 -0.5 0-0.8 0.4-0.8 0.8 0 0.4 0.3 0.8 0.8 0.8 0 0 0.1 0 0.2 0 0 0 0.1 0 0.1 0 0.3-0.1 0.5-0.3 0.5-0.6 0 0 0-0.1 0-0.1C33.3 11.7 33.3 11.6 33.3 11.6zM32.5 11.7C32.5 11.7 32.5 11.7 32.5 11.7 32.5 11.8 32.4 11.8 32.5 11.7 32.5 11.7 32.5 11.6 32.5 11.7 32.4 11.7 32.4 11.6 32.5 11.7L32.5 11.7z"/><path d="M38.4 47.6c-0.1-0.1-0.2-0.1-0.3-0.2 -0.1 0-0.1-0.1-0.2-0.1 -0.2-0.1-0.4-0.1-0.6-0.1H22.7c-0.9 0-1.6 0.7-1.6 1.6v0.1c0 0.2 0.2 0.4 0.4 0.4h16.9c0.2 0 0.4-0.2 0.4-0.4v-0.1C38.8 48.3 38.7 47.9 38.4 47.6zM22.1 48.5c0.1-0.2 0.4-0.4 0.7-0.4h14.6c0 0 0 0 0.1 0 0 0 0 0 0 0 0.2 0 0.4 0.2 0.6 0.4H22.1z"/><path d="M52.8 13H7.6c-0.2 0-0.4 0.2-0.4 0.4v31.1c0 0.2 0.2 0.4 0.4 0.4h45.2c0.2 0 0.4-0.2 0.4-0.4V13.4C53.3 13.2 53.1 13 52.8 13zM52.4 44.1H8.1V13.9h44.3V44.1z"/><path d="M59.5 45.9h-3.6v-33c0-2.1-2.2-3.8-4.9-3.8H9.1c-1.5 0-2.9 0.5-3.8 1.4L5 10.8c-0.2 0.2-0.3 0.4-0.5 0.6 -0.2 0.5-0.4 1-0.4 1.5v33H0.6c-0.2 0-0.4 0.2-0.4 0.4v2.3c0 0 0 0 0 0.1 0 0 0 0 0 0.1 0 0 0 0.1 0.1 0.1l2.3 2C2.7 51 2.8 51 2.9 51h54.2c0.1 0 0.2 0 0.3-0.1l2.3-2c0 0 0 0 0.1-0.1 0 0 0 0 0-0.1 0 0 0 0 0-0.1v-0.1l0.1-2.2C59.9 46.1 59.7 45.9 59.5 45.9zM5.1 12.9c0-0.2 0-0.4 0.1-0.6C5.5 11 7.2 10 9.1 10h41.8c2.2 0 4 1.3 4 2.9v33H5.1V12.9zM59 48.3L57 50H3.1l-2-1.7v-1.5H59V48.3z"/>
    </symbol>
    <symbol id="purse-icon" viewBox="0 0 60 60">
        <title>Purse</title>
        <path d="M46 24.6l4.1-0.2c0.7-0.2 1.4-0.9 1.4-1.8v-5h-44c-0.9 0-1.6-0.7-1.6-1.4 0-0.9 0.7-1.6 1.6-1.6h8.2l5.7-2.7H5c-1.1 0-2 0.9-2 2v37.6c0 1.1 0.9 2 2 2h44.6c1.1 0 2-0.9 2-2v-8.7c0-1.1-0.9-2-2-2 -2 0-3.9 0-6 0 -2.7 0-4.8-2.1-4.8-5v-6.6C38.7 24.9 42.4 24.6 46 24.6zM22.5 14.6h19.5l-3.7-7.5L22.5 14.6zM45.4 14.6h6v-0.7c0-1.1-0.9-2-2-2H44L45.4 14.6zM42.6 8.9h6.9c2.7 0 4.8 2.3 4.8 5 0 2.8 0 5.9 0 8.7 0 0.7 0 1.2-0.4 2H55c2.7 0 5 2.1 5 4.8v6.6c0 2.7-2.3 5-5 5H54c0.4 0.5 0.4 1.2 0.4 2v8.7c0 2.7-2.1 4.8-4.8 4.8H5c-2.7 0-5-2.1-5-4.8V13.9c0-2.7 2.3-5 5-5h22.5l0 0 11-5.1c0.7-0.4 1.6 0 2 0.7L42.6 8.9zM55 27.6c-3.9 0-7.6 0-11.5 0 -1.1 0-1.8 0.7-1.8 1.8v6.6c0 1.1 0.7 2 1.8 2 3.9 0 7.6 0 11.5 0 1.1 0 2-0.9 2-2v-6.6C57 28.3 56.1 27.6 55 27.6z"/><circle  cx="47" cy="32.7" r="2.3"/>
    </symbol>
    <symbol id="24" viewBox="0 0 60 60">
        <title>24 hours</title>
        <path class="st0" d="M30.3 0C39.6 0 48 4.2 53.5 10.7l3.8-3.8v12.5H44.8l3.6-3.6C44.1 10.4 37.5 7 30 7 17.1 7 6.7 17.3 6.7 30.2S17.1 53.4 30 53.4c10.7 0 19.7-7.2 22.5-17H60c-2.9 13.7-15.1 23.9-29.7 23.9C13.6 60.3 0 46.8 0 30.2 0 13.5 13.6 0 30.3 0L30.3 0zM29.9 39.2H17.4v-2.7l5.8-6c1.4-1.6 2.1-2.9 2.1-3.8 0-0.8-0.2-1.3-0.5-1.7 -0.3-0.4-0.8-0.6-1.5-0.6 -0.6 0-1.1 0.3-1.5 0.8 -0.4 0.5-0.6 1.2-0.6 2H17c0-1.1 0.3-2.1 0.8-3 0.5-0.9 1.3-1.6 2.3-2.2 1-0.5 2.1-0.8 3.3-0.8 1.9 0 3.4 0.4 4.5 1.3 1 0.9 1.6 2.2 1.6 3.8 0 0.7-0.1 1.4-0.4 2.1 -0.3 0.7-0.7 1.4-1.2 2.1 -0.6 0.7-1.4 1.7-2.7 2.9L22.9 36h7L29.9 39.2 29.9 39.2zM41.9 32.2h1.8v3.2h-1.8v3.8h-4.1v-3.8h-6.9l-0.2-2.5 7.2-11.5v0h4.1L41.9 32.2 41.9 32.2zM34.5 32.2h3.2v-5.5l-0.3 0.4L34.5 32.2 34.5 32.2z"/>
    </symbol>
    <symbol id="hierarchy" viewBox="0 0 60 60">
        <title>Hierarchy</title>
        <path d="M8.1 44.5c2.3 0 4.2-1.9 4.2-4.2 0-2.3-1.9-4.2-4.2-4.2s-4.2 1.9-4.2 4.2C3.9 42.6 5.8 44.5 8.1 44.5 8.1 44.5 8.1 44.5 8.1 44.5zM8.1 37.9c1.3 0 2.3 1 2.3 2.3 0 1.3-1 2.3-2.3 2.3 -1.3 0-2.3-1-2.3-2.3C5.7 39 6.8 37.9 8.1 37.9z"/><path d="M30 15.1c2.6 0 4.7-2.1 4.7-4.7S32.6 5.7 30 5.7s-4.7 2.1-4.7 4.7C25.3 13 27.4 15.1 30 15.1 30 15.1 30 15.1 30 15.1zM30 7.6c1.5 0 2.8 1.3 2.8 2.8s-1.3 2.8-2.8 2.8c-1.5 0-2.8-1.3-2.8-2.8C27.2 8.9 28.5 7.6 30 7.6z"/><path d="M35 43.7c-0.4 0.5-0.9 1-1.4 1.4 1.5 0.4 2.5 1.8 2.5 3.3l0 3.9H23.9v-3.9c0-1.5 1-2.9 2.5-3.3 -0.5-0.4-1-0.9-1.4-1.4 -1.8 0.9-3 2.7-3 4.7v3.9c0 1 0.8 1.9 1.9 1.9h12.1c1 0 1.9-0.8 1.9-1.9v-3.9C37.9 46.4 36.8 44.6 35 43.7z"/><path d="M56.9 43.7c-0.4 0.5-0.9 1-1.4 1.4 1.5 0.4 2.5 1.8 2.5 3.3l0 3.9H45.9v-3.9c0-1.5 1-2.9 2.5-3.3 -0.5-0.4-1-0.9-1.4-1.4 -1.8 0.9-3 2.7-3 4.7v3.9c0 1 0.8 1.9 1.9 1.9H58c1 0 1.9-0.8 1.9-1.9v-3.9C59.9 46.4 58.7 44.6 56.9 43.7z"/><path d="M25.8 40.3c0 2.3 1.9 4.2 4.2 4.2s4.2-1.9 4.2-4.2c0-2.3-1.9-4.2-4.2-4.2C27.7 36.1 25.8 37.9 25.8 40.3 25.8 40.3 25.8 40.3 25.8 40.3zM32.3 40.3c0 1.3-1 2.3-2.3 2.3 -1.3 0-2.3-1-2.3-2.3 0-1.3 1-2.3 2.3-2.3C31.3 37.9 32.3 39 32.3 40.3z"/><path d="M47.7 40.3c0 2.3 1.9 4.2 4.2 4.2s4.2-1.9 4.2-4.2c0-2.3-1.9-4.2-4.2-4.2C49.6 36.1 47.7 37.9 47.7 40.3 47.7 40.3 47.7 40.3 47.7 40.3zM54.3 40.3c0 1.3-1 2.3-2.3 2.3s-2.3-1-2.3-2.3c0-1.3 1-2.3 2.3-2.3C53.2 37.9 54.3 39 54.3 40.3z"/><path d="M9 34.3v-2.9h20.1v2.9c0.6-0.1 1.2-0.1 1.9 0v-2.9H51v2.9c0.6-0.1 1.2-0.1 1.9 0v-2.9c0-1-0.8-1.9-1.9-1.9H30.9v-2.8H37c1 0 1.9-0.8 1.9-1.9v-4.9c0-2.4-1.4-4.7-3.6-5.7 -0.4 0.6-0.9 1-1.5 1.4 1.9 0.5 3.3 2.3 3.2 4.2l0 4.9H23v-4.9c-0.1-2 1.3-3.7 3.2-4.2 -0.6-0.4-1-0.9-1.5-1.4 -2.2 1-3.7 3.2-3.6 5.7v4.9c0 1 0.8 1.9 1.9 1.9h6.1v2.8H9c-1 0-1.9 0.8-1.9 1.9v2.9c0.3-0.1 0.6-0.1 0.9-0.1C8.4 34.2 8.7 34.2 9 34.3z"/><path d="M13.1 43.7c-0.4 0.5-0.9 1-1.4 1.4 1.5 0.4 2.5 1.8 2.5 3.3l0 3.9H2v-3.9c0-1.5 1-2.9 2.5-3.3 -0.5-0.4-1-0.9-1.4-1.4 -1.8 0.9-3 2.7-3 4.7v3.9c0 1 0.8 1.9 1.9 1.9h12.1c1 0 1.9-0.8 1.9-1.9v-3.9C16 46.4 14.9 44.6 13.1 43.7z"/>
    </symbol>
    <symbol id="lock" viewBox="0 0 60 60">
        <title>Lock</title>
        <path d="M47.3 24.4h-1.6l0-8.2C45.7 7.3 38.4 0 29.4 0S13.2 7.3 13.2 16.2l0 8.2h-0.6c-3.1 0-5.6 2.5-5.6 5.6v24.4c0 3.1 2.5 5.6 5.6 5.6l34.7 0c3.1 0 5.6-2.5 5.6-5.6V30C52.9 26.9 50.4 24.4 47.3 24.4zM19.2 24.4l0-8.2C19.2 10.6 23.8 6 29.4 6c5.6 0 10.2 4.6 10.2 10.2l0 8.2L19.2 24.4z"/>
    </symbol>
    <symbol id="medal" viewBox="0 0 60 60">
        <title>Medal</title>
        <path d="M42.6 29.1L52.2 0H33.9L30 11.4 26.1 0H7.8l9.6 29.1C14.1 32.4 12 36.9 12 42c0 9.9 8.1 18 18 18s18-8.1 18-18C48 36.9 45.9 32.4 42.6 29.1zM38.1 6h5.7l-6.6 19.5c-0.9-0.3-1.8-0.9-3-0.9L33.3 21 38.1 6zM16.2 6h5.7l6 18c-1.8 0.3-3.6 0.9-5.1 1.5L16.2 6zM30 54c-6.6 0-12-5.4-12-12s5.4-12 12-12 12 5.4 12 12S36.6 54 30 54z"/>
    </symbol>
    <symbol id="percent" viewBox="0 0 60 60">
        <title>Percent</title>
        <path d="M14.3 58.4c0.3-0.5 0.7-1 1-1.4 0.9-1.3 1.8-2.6 2.7-3.9 1.3-1.9 2.6-3.8 4-5.8 1.6-2.4 3.2-4.7 4.8-7.1 1.8-2.6 3.5-5.1 5.3-7.7 1.8-2.6 3.6-5.2 5.4-7.8 1.7-2.4 3.3-4.9 5-7.3 1.4-2 2.8-4.1 4.2-6.1 1-1.5 2-2.9 3-4.4 0.5-0.7 1-1.4 1.4-2.1 0 0 0-0.1 0.1-0.1 0.4-0.6 0.5-1.7 0.3-2.4S50.7 0.8 50 0.4c-0.7-0.4-1.6-0.6-2.4-0.3 -0.8 0.3-1.4 0.7-1.9 1.4 -0.3 0.5-0.7 1-1 1.4 -0.9 1.3-1.8 2.6-2.7 3.9 -1.3 1.9-2.6 3.8-4 5.8 -1.6 2.4-3.2 4.7-4.8 7.1 -1.8 2.6-3.5 5.1-5.3 7.7 -1.8 2.6-3.6 5.2-5.4 7.8 -1.7 2.4-3.3 4.9-5 7.3 -1.4 2-2.8 4.1-4.2 6.1 -1 1.5-2 2.9-3 4.4 -0.5 0.7-1 1.4-1.4 2.1 0 0 0 0.1-0.1 0.1 -0.4 0.6-0.5 1.7-0.3 2.4s0.8 1.5 1.4 1.9c0.7 0.4 1.6 0.6 2.4 0.3C13.2 59.6 13.8 59.1 14.3 58.4L14.3 58.4z"/><path d="M12.7 2.4C6.8 2.4 2.1 7.2 2.1 13.1c0 5.9 4.8 10.7 10.7 10.7 5.9 0 10.7-4.8 10.7-10.7C23.4 7.2 18.6 2.4 12.7 2.4zM12.7 17.4c-2.4 0-4.3-1.9-4.3-4.3 0-2.4 1.9-4.3 4.3-4.3 2.4 0 4.3 1.9 4.3 4.3C17 15.5 15.1 17.4 12.7 17.4z"/><path d="M47.3 37c-5.9 0-10.7 4.8-10.7 10.7 0 5.9 4.8 10.7 10.7 10.7 5.9 0 10.7-4.8 10.7-10.7C57.9 41.8 53.2 37 47.3 37zM47.3 52C44.9 52 43 50 43 47.7c0-2.4 1.9-4.3 4.3-4.3 2.4 0 4.3 1.9 4.3 4.3C51.6 50 49.6 52 47.3 52z"/>
    </symbol>
    <symbol id="smartphone" viewBox="0 0 60 60">
        <title>Smartphone</title>
        <path d="M42.7 0.2H17.3c-2.2 0-4.1 1.8-4.1 4.1v51.7c0 2.2 1.8 4.1 4.1 4.1h25.3c2.2 0 4.1-1.8 4.1-4.1V4.3C46.7 2 44.9 0.2 42.7 0.2zM27.8 2.5h4.5c0.3 0 0.5 0.2 0.5 0.5s-0.2 0.5-0.5 0.5h-4.5c-0.3 0-0.5-0.2-0.5-0.5C27.2 2.7 27.5 2.5 27.8 2.5zM29.7 57.9c-0.9 0-1.7-0.7-1.7-1.7 0-0.9 0.7-1.7 1.7-1.7s1.7 0.7 1.7 1.7S30.6 57.9 29.7 57.9zM43.9 52.5H16.1V5.9h27.8V52.5z"/>
    </symbol>
</svg>